D:\Garv\Gaurav\src\main\java\assignment1\ControlGroupLandingPage.java
D:\Garv\Gaurav\src\main\java\assignment1\Selectmenu.java
D:\Garv\Gaurav\src\main\java\assignment2\olayLndingPageEN_GB.java
D:\Garv\Gaurav\src\main\java\resources\dataDriven.java
D:\Garv\Gaurav\src\main\java\assignment3\makeMyTripLandingPage.java
D:\Garv\Gaurav\src\main\java\resources\baseInitialise.java
D:\Garv\Gaurav\src\main\java\assignment1\calendarLandingPage.java
D:\Garv\Gaurav\src\main\java\assignment1\LandingPage.java
D:\Garv\Gaurav\src\main\java\assignment1\DragAndDropper.java
D:\Garv\Gaurav\src\main\java\assignment3\searchFlightPage.java
D:\Garv\Gaurav\src\main\java\resources\ExtentReporterNG.java
D:\Garv\Gaurav\src\main\java\assignment1\LandingPage_002.java
