D:\Garv\Gaurav\src\test\java\project1\contactForm.java
D:\Garv\Gaurav\src\test\java\project3\makeMyTrip.java
D:\Garv\Gaurav\src\test\java\project1\homepage.java
D:\Garv\Gaurav\src\test\java\project2\olayEs_esJson.java
D:\Garv\Gaurav\src\test\java\project1\AppTest.java
D:\Garv\Gaurav\src\test\java\project2\OlayEn_GbRandomise.java
D:\Garv\Gaurav\src\test\java\project1\controlGroup.java
D:\Garv\Gaurav\src\test\java\project2\olayDe_deExcelDriven.java
D:\Garv\Gaurav\src\test\java\project1\listeners.java
D:\Garv\Gaurav\src\test\java\project1\calendarPage.java
D:\Garv\Gaurav\src\test\java\project1\dragAndDrop.java
D:\Garv\Gaurav\src\test\java\project1\selectmenuoption.java
